^D:\PROJECT FILES\PROGRAMMING\AMBIENTLIGHT ARDUINO\SERIALPORT.CPP|D:\PROJECT FILES\PROGRAMMING\AMBIENTLIGHT ARDUINO\SOURCE.CPP
D:\PROJECT FILES\PROGRAMMING\AMBIENTLIGHT ARDUINO\DEBUG\VC141.PDB
D:\PROJECT FILES\PROGRAMMING\AMBIENTLIGHT ARDUINO\DEBUG\VC141.IDB
D:\PROJECT FILES\PROGRAMMING\AMBIENTLIGHT ARDUINO\DEBUG\SERIALPORT.OBJ
^D:\PROJECT FILES\PROGRAMMING\AMBIENTLIGHT ARDUINO\SERIALPORT.CPP
D:\PROJECT FILES\PROGRAMMING\AMBIENTLIGHT ARDUINO\DEBUG\SERIALPORT.OBJ
^D:\PROJECT FILES\PROGRAMMING\AMBIENTLIGHT ARDUINO\SOURCE.CPP
D:\PROJECT FILES\PROGRAMMING\AMBIENTLIGHT ARDUINO\DEBUG\VC141.PDB
D:\PROJECT FILES\PROGRAMMING\AMBIENTLIGHT ARDUINO\DEBUG\VC141.IDB
D:\PROJECT FILES\PROGRAMMING\AMBIENTLIGHT ARDUINO\DEBUG\SOURCE.OBJ
