﻿  Source.cpp
d:\project files\programming\ambientlight arduino\source.cpp(749): warning C4154: deletion of an array expression; conversion to pointer supplied
d:\project files\programming\ambientlight arduino\source.cpp(713): warning C4101: 'b': unreferenced local variable
d:\project files\programming\ambientlight arduino\source.cpp(713): warning C4101: 'lo': unreferenced local variable
d:\project files\programming\ambientlight arduino\source.cpp(713): warning C4101: 'g': unreferenced local variable
d:\project files\programming\ambientlight arduino\source.cpp(713): warning C4101: 'r': unreferenced local variable
  AmbientLight.vcxproj -> D:\Project Files\Programming\AmbientLight Arduino\Debug\AmbientLight.exe
